Arbeidskrav_4_DataScience
…
# ag: et alternativ er å bruke `#| paged.print: false`
gdp

# A tibble: 30,058 × 3
   geo   time     gdp_n3
   <chr> <chr>     <dbl>
 1 AL011 2008  551130000
 2 AL011 2009  582160000
 3 AL011 2010  664070000
 4 AL011 2011  631170000
 5 AL011 2012  717600000
 6 AL011 2013  696860000
 7 AL011 2014  735600000
 8 AL011 2015  788630000
 9 AL011 2016  801980000
10 AL011 2017  800660000
# ℹ 30,048 more rows

Her har vi konvertert gdp til euro fra milioner euro. Vi vil og gi navnet gdp. Vi velger og å benytte MI0_PPS_EU27_2020 som mål på BNP.

Vi har et lite problem for sonen IE053. Her mangler vi gdp data for årene 2015, 2016 og 2017. Dette vil gi oss problemer senere hvis vi ikke fikser det.

gdp |>
 filter(geo == "IE053")

# A tibble: 21 × 3
   geo   time       gdp_n3
   <chr> <chr>       <dbl>
 1 IE053 2000  15837300000
 2 IE053 2001  17506250000
 3 IE053 2002  19395440000
 4 IE053 2003  19687190000
 5 IE053 2004  21000450000
 6 IE053 2005  21776750000
 7 IE053 2006  24081640000
 8 IE053 2007  26086890000
 9 IE053 2008  22705550000
10 IE053 2009  24012370000
# ℹ 11 more rows
…
gdp_pop <- left_join(
  gdp,
  pop,
  by = c("geo", "time")
)

dim(gdp_pop)

[1] 30061     4

# ag: igjen paged.print: false gjør susen
gdp_pop

# A tibble: 30,061 × 4
   geo   time     gdp_n3 pop_n3
   <chr> <chr>     <dbl>  <dbl>
 1 AL011 2008  551130000 155390
 2 AL011 2009  582160000 150430
 3 AL011 2010  664070000 146140
 4 AL011 2011  631170000 142580
 5 AL011 2012  717600000 139340
 6 AL011 2013  696860000 136020
 7 AL011 2014  735600000 132690
 8 AL011 2015  788630000 130050
 9 AL011 2016  801980000 127320
10 AL011 2017  800660000 123290
# ℹ 30,051 more rows
…
Oppgave 38

Hvilken NUTS1 sone har høyest koeffisient for diff_gdp_per_capita?

mods_flat |>
  unnest(mod_coeff)|>
  arrange(desc(mod_coeff)) |>
  select(nc_name, n2, NUTS2_diff, modell, mod_coeff, r.squared)

# A tibble: 436 × 6
   nc_name  n2    NUTS2_diff        modell mod_coeff r.squared
   <chr>    <chr> <list>            <list>     <dbl>     <dbl>
 1 Albania  AL02  <tibble [28 × 6]> <lm>       0.932  0.105   
 2 Polen    PL91  <tibble [69 × 6]> <lm>       0.430  0.0236  
 3 Romania  RO32  <tibble [46 × 6]> <lm>       0.404  0.448   
 4 Danmark  DK03  <tibble [46 × 6]> <lm>       0.283  0.00307 
 5 Irland   IE06  <tibble [68 × 6]> <lm>       0.271  0.579   
 6 Slovakia SK04  <tibble [46 × 6]> <lm>       0.222  0.458   
 7 Tyrkia   TR42  <tibble [95 × 6]> <lm>       0.216  0.000890
 8 Tjekkia  CZ04  <tibble [46 × 6]> <lm>       0.207  0.0923  
 9 Hellas   EL42  <tibble [46 × 6]> <lm>       0.203  0.0847  
10 Sverige  SE23  <tibble [46 × 6]> <lm>       0.196  0.247   
# ℹ 426 more rows
…
